…
        # A tibble: 2 × 15
          BSSID             First_time_seen  Last_time_seen channel Speed Privacy Cipher
          <chr>             <chr>            <chr>          <chr>   <chr> <chr>   <chr> 
        1 BE:F1:71:D5:17:8B 2023-07-28 09:1… 2023-07-28 11… 1       195   WPA2    CCMP  
        2 BSSID             First time seen  Last time seen channel Speed Privacy Cipher
        # ℹ 8 more variables: Authentication <chr>, Power <chr>, `#beacons` <chr>,
        #   `#IV` <chr>, LAN_IP <chr>, ID_length <chr>, ESSID <chr>, Key <chr>

    ``` r
    sta_data
    ```

        # A tibble: 12,249 × 15
           Station_MAC       First_time_seen     Last_time_seen      Power Packets BSSID
           <chr>             <dttm>              <dttm>              <dbl>   <dbl> <chr>
         1 BE:F1:71:D5:17:8B 2023-07-28 09:13:03 2023-07-28 11:50:50     1     195 WPA2 
         2 6E:C7:EC:16:DA:1A 2023-07-28 09:13:03 2023-07-28 11:55:12     1     130 WPA2 
         3 9A:75:A8:B9:04:1E 2023-07-28 09:13:03 2023-07-28 11:53:31     1     360 WPA2 
         4 4A:EC:1E:DB:BF:95 2023-07-28 09:13:03 2023-07-28 11:04:01     7     360 WPA2 
         5 D2:6D:52:61:51:5D 2023-07-28 09:13:03 2023-07-28 10:30:19     6     130 WPA2 
         6 E8:28:C1:DC:B2:52 2023-07-28 09:13:03 2023-07-28 11:55:38     6     130 OPN  
         7 BE:F1:71:D6:10:D7 2023-07-28 09:13:03 2023-07-28 11:50:44    11     195 WPA2 
         8 0A:C5:E1:DB:17:7B 2023-07-28 09:13:03 2023-07-28 11:36:31    11     130 WPA2 
         9 38:1A:52:0D:84:D7 2023-07-28 09:13:03 2023-07-28 10:25:02    11     130 WPA2 
        10 BE:F1:71:D5:0E:53 2023-07-28 09:13:03 2023-07-28 10:29:21     1     195 WPA2 
        # ℹ 12,239 more rows
        # ℹ 9 more variables: Probed_ESSIDs <chr>, X8 <chr>, X9 <chr>, X10 <chr>,
        #   X11 <chr>, X12 <chr>, X13 <chr>, X14 <chr>, X15 <lgl>
…
9.  Определить производителя для каждого обнаруженного устройства

    ``` r
    sta_with_vendor
    ```

        # A tibble: 12,249 × 18
           Station_MAC       First_time_seen     Last_time_seen      Power Packets BSSID
           <chr>             <dttm>              <dttm>              <int>   <int> <chr>
         1 BE:F1:71:D5:17:8B 2023-07-28 09:13:03 2023-07-28 11:50:50     1     195 WPA2 
         2 6E:C7:EC:16:DA:1A 2023-07-28 09:13:03 2023-07-28 11:55:12     1     130 WPA2 
         3 9A:75:A8:B9:04:1E 2023-07-28 09:13:03 2023-07-28 11:53:31     1     360 WPA2 
         4 4A:EC:1E:DB:BF:95 2023-07-28 09:13:03 2023-07-28 11:04:01     7     360 WPA2 
         5 D2:6D:52:61:51:5D 2023-07-28 09:13:03 2023-07-28 10:30:19     6     130 WPA2 
         6 E8:28:C1:DC:B2:52 2023-07-28 09:13:03 2023-07-28 11:55:38     6     130 OPN  
         7 BE:F1:71:D6:10:D7 2023-07-28 09:13:03 2023-07-28 11:50:44    11     195 WPA2 
         8 0A:C5:E1:DB:17:7B 2023-07-28 09:13:03 2023-07-28 11:36:31    11     130 WPA2 
         9 38:1A:52:0D:84:D7 2023-07-28 09:13:03 2023-07-28 10:25:02    11     130 WPA2 
        10 BE:F1:71:D5:0E:53 2023-07-28 09:13:03 2023-07-28 10:29:21     1     195 WPA2 
        # ℹ 12,239 more rows
        # ℹ 12 more variables: Probed_ESSIDs <chr>, X8 <chr>, X9 <chr>, X10 <chr>,
        #   X11 <chr>, X12 <chr>, X13 <chr>, X14 <chr>, X15 <lgl>, OUI <chr>,
        #   ShortName <chr>, FullName <chr>
…
    ``` r
    sta_clusters <- sta_data_clean %>% filter(BSSID != "(not associated)" & !is.na(Probed_ESSIDs) & Probed_ESSIDs != "") %>% group_by(BSSID, Probed_ESSIDs) %>% summarise(
      mean_power = mean(Power, na.rm = TRUE),
      sd_power = sd(Power, na.rm = TRUE),
      n = n(),
      first_seen = min(First_time_seen),
      last_seen = max(Last_time_seen),
      .groups = "drop"
    ) %>% arrange(sd_power)

    sta_clusters
    ```

        # A tibble: 52 × 7
           BSSID             Probed_ESSIDs mean_power sd_power     n first_seen         
           <chr>             <chr>              <dbl>    <dbl> <int> <dttm>             
         1 1E:93:E3:1B:3C:F4 Galaxy A71        -48.5     0.707     2 2023-07-28 09:13:13
         2 E8:28:C1:DC:B2:50 MIREA_HOTSPOT     -63       2.83      2 2023-07-28 09:45:48
         3 E8:28:C1:DD:04:40 MIREA_HOTSPOT     -61       2.83      2 2023-07-28 10:14:39
         4 8E:55:4A:85:5B:01 Vladimir          -51.5     4.12      4 2023-07-28 09:31:57
         5 00:26:99:F2:7A:E2 GIVC              -64.7     4.54      7 2023-07-28 09:13:06
         6 00:26:99:BA:75:80 GIVC              -60.3     5.32      6 2023-07-28 09:39:02
         7 E8:28:C1:DC:B2:50 MIREA_GUESTS      -57.7     5.77      3 2023-07-28 10:35:02
         8 WPA2              CCMP                6.67    6.41     72 2023-07-28 09:13:03
         9 AA:F4:3F:EE:49:0B Redmi Note 8…     -49       8.49      2 2023-07-28 09:19:44
        10 E8:28:C1:DC:F0:90 MIREA_GUESTS      -63       8.49      2 2023-07-28 10:30:39
        # ℹ 42 more rows
        # ℹ 1 more variable: last_seen <dttm>
…
